<?xml version="1.0" encoding="UTF-8"?>
<svg width="108px" height="31px" viewBox="0 0 108 31" version="1.1" xmlns="http://www.w3.org/2000/svg" xmlns:xlink="http://www.w3.org/1999/xlink">
    <!-- Generator: Sketch 50.2 (55047) - http://www.bohemiancoding.com/sketch -->
    <title>Page 1@2x</title>
    <desc>Created with Sketch.</desc>
    <defs>
        <polygon id="path-1" points="0.000249949167 0.2321125 29.6723223 0.2321125 29.6723223 30.6856396 0.000249949167 30.6856396"></polygon>
    </defs>
    <g id="I-------(ROAM-V4.0---eRoam-General)-Homepage" stroke="none" stroke-width="1" fill="none" fill-rule="evenodd">
        <g id="I---01.01-(ROAM-V4.0)-Homepage---Signed-Out" transform="translate(-40.000000, -7.000000)">
            <g id="Page-1" transform="translate(40.000000, 7.000000)">
                <path d="M57.3967407,22.7365596 C57.1720361,25.1987244 55.4877315,26.7279762 52.999902,26.7279762 C50.5097195,26.7279762 48.8242385,25.1960226 48.6030632,22.7442792 C48.4967893,21.2370283 48.4967893,19.6904075 48.6034554,18.1457165 C48.7626702,15.7565019 50.4473669,14.2720238 52.999902,14.2720238 C55.5520449,14.2720238 57.2367416,15.7565019 57.3963486,18.1476464 C57.5030147,19.6880916 57.5030147,21.2320106 57.3967407,22.7365596 M61.9159318,17.8400206 C61.7982853,15.5542485 60.8755453,13.6463507 59.1743781,12.1699781 C57.5516418,10.7298877 55.4743983,10 52.999902,10 C50.5665819,10 48.4779658,10.7410811 46.7846417,12.2089621 C45.1105332,13.696142 44.2019107,15.5905306 44.0838722,17.831529 C43.9721081,19.5973864 43.9721081,21.2964692 44.08348,23.0163949 C44.2023029,25.3122025 45.12269,27.2428732 46.8203278,28.7543698 C48.493652,30.2446376 50.5728564,31 52.999902,31 C55.4665552,31 57.5481125,30.2423218 59.1790839,28.7543698 C60.8767217,27.2428732 61.797501,25.3122025 61.9155396,23.0260444 C62.028088,21.2968552 62.028088,19.5973864 61.9159318,17.8400206" id="Fill-1" fill="#FFFFFF"></path>
                <g id="Group-5" transform="translate(81.000000, 10.000000)" fill="#FFFFFF">
                    <path d="M19.1993529,0.226341818 C17.1882386,0.226341818 15.3591814,0.84336 13.6292529,2.10870545 C12.3567814,0.859014545 10.4698671,0.226341818 8.00708143,0.226341818 C5.30553857,0.226341818 3.05759571,0.901778182 1.32419571,2.23623273 C0.458652857,2.90976 0.276595714,3.68752364 0.276595714,4.22130545 L0.276595714,20.8223782 L2.60901,20.8223782 L2.65491,20.8212327 C3.83519571,20.75136 4.72542429,19.7826873 4.72542429,18.56736 L4.72542429,5.32056 C5.69665286,4.76768727 6.81059571,4.48781455 8.04295286,4.48781455 C10.3375671,4.48781455 11.3612529,5.59928727 11.3612529,8.09217818 L11.3616386,20.8223782 L13.6940529,20.8223782 L13.7399529,20.8212327 C14.9198529,20.75136 15.8096957,19.7823055 15.8096957,18.56736 L15.8096957,5.86312364 C16.5649243,4.93836 17.6530243,4.48781455 19.12761,4.48781455 C20.6723957,4.48781455 22.4455243,4.93377818 22.4455243,8.41137818 L22.4462957,20.8223782 L24.8014671,20.8223782 L24.82461,20.8212327 C26.00451,20.75136 26.8939671,19.7823055 26.8939671,18.56736 L26.8939671,8.23421455 C26.8939671,2.92045091 24.3050529,0.226341818 19.1993529,0.226341818" id="Fill-3"></path>
                </g>
                <path d="M43.2333091,10.4052426 C42.2773109,10.1364403 41.1259843,10 39.8122808,10 C35.6103355,10 33,12.3851102 33,16.2239772 L33,27.8443913 C33,28.9993141 33.9278105,29.9254769 35.157745,29.998517 L37.6088798,30 L37.6156289,16.5343047 C37.6156289,14.9059192 38.2770463,14.1996181 39.8122808,14.1725525 C40.3188646,14.1725525 40.8175081,14.2140778 41.3360021,14.299353 C41.6393171,14.3494059 41.9259578,14.3883358 42.151856,14.4102108 L44.1142725,14.6908774 L44.8411963,13.1859555 C44.8943956,13.0639749 44.9352875,12.9319838 44.9626811,12.7940604 L44.9722094,12.7384461 C44.9908688,12.6294422 45,12.528595 45,12.4314554 C45,11.4011086 44.3564481,10.6636635 43.2333091,10.4052426" id="Fill-6" fill="#FFFFFF"></path>
                <path d="M75.4933494,22.177661 L75.4933494,25.9162608 C74.9107151,26.3072583 73.5811744,26.8356645 71.4452426,26.8356645 C67.986861,26.8356645 67.5432868,25.3492565 67.5432868,24.0539085 C67.5432868,22.2123991 69.5074616,21.5589354 71.188789,21.5589354 C72.3209668,21.5589354 73.79981,21.7719963 75.4933494,22.177661 M71.9947861,10 C69.6414006,10 67.5673171,10.4118404 65.8343838,11.2223979 C64.9283265,11.639642 64.4288131,12.3722315 64.4288131,13.2846876 C64.4288131,14.1052806 65.45187,15.4342088 65.9565046,15.5951624 C66.2645641,15.6935872 66.4587755,15.6117595 66.9299254,15.4149098 C67.7721648,15.0621244 69.7446123,14.2365137 71.7016963,14.2365137 C74.4305047,14.2365137 75.4933494,15.1775323 75.4933494,17.5926076 L75.4933494,18.0754682 C73.9148399,17.7188229 72.4584511,17.5381844 71.1517588,17.5381844 C66.1999583,17.5381844 63,20.1238627 63,24.1257007 C63,28.3660742 66.1097465,31 71.1155165,31 C72.7909348,31 74.3643231,30.7699561 75.8037725,30.3125701 C77.3937063,29.779532 78.3950966,29.3275498 79.0423367,28.8504788 C79.6604255,28.4513757 80,27.8075615 80,27.0332862 L80,17.4849192 C80,12.6582425 77.1573435,10 71.9947861,10" id="Fill-8" fill="#FFFFFF"></path>
                <path d="M9.92694012,9.58682145 C6.66756603,12.1607997 6.12529916,16.7466635 8.32554024,20 L19,9.4703377 C16.3186847,7.47838733 12.5647663,7.50379486 9.92694012,9.58682145" id="Fill-10" fill="#FFFFFF"></path>
                <g id="Group-14">
                    <mask id="mask-2" fill="white">
                        <use xlink:href="#path-1"></use>
                    </mask>
                    <g id="Clip-13"></g>
                    <path d="M21.9911013,22.8314613 C17.823,26.9622113 11.0824937,26.7262238 7.2086962,22.2048738 C3.8186962,18.2481113 3.90565823,12.1674613 7.40768354,8.31338625 C11.4086962,3.90944875 18.1533797,3.87418625 22.201481,8.12699875 C22.204519,8.13087375 22.2083165,8.13436125 22.2117342,8.13823625 C22.7821139,8.73963625 22.7365443,9.71071125 22.1483165,10.2938988 L21.1678101,11.2649738 C21.1670506,11.2634238 21.1655316,11.2622613 21.1647722,11.2607113 L10.681481,21.6503613 C13.2850253,23.4774238 16.8428734,23.4165863 19.3826203,21.4473113 C21.6819873,19.6632613 22.6393291,16.8724863 22.2542658,14.2432988 C22.1688228,13.6573988 22.4448987,13.0633613 22.9981899,12.7808738 C23.939962,12.2995988 24.8323671,12.8750363 24.9778101,13.9394988 C25.409962,17.1069238 24.4116076,20.4324488 21.9911013,22.8314613 M15.0527468,0.23362375 C6.87262025,0.11194875 0.120721519,6.80329875 0.00186075949,15.1504363 C-0.117759494,23.4975738 6.44008861,30.3873238 14.6202152,30.5086113 L26.4774304,30.6853113 C28.1217342,30.7097238 29.4736329,29.3697488 29.4979367,27.6918738 L29.6707215,15.5917988 C29.789962,7.24504875 23.2324937,0.35529875 15.0527468,0.23362375" id="Fill-12" fill="#FFFFFF" mask="url(#mask-2)"></path>
                </g>
                <path d="M33.6290323,4.48896572 C33.7662494,4.52574665 33.9395763,4.54045903 34.1493741,4.54045903 C34.9084015,4.54045903 35.3709677,4.1649257 35.3709677,3.48006473 C35.3709677,2.82499632 34.9156235,2.50831249 34.2215936,2.50831249 C33.9471594,2.50831249 33.7373616,2.53038105 33.6290323,2.5598058 L33.6290323,4.48896572 Z M33,2.09599823 C33.3036832,2.04450493 33.7008907,2 34.2075108,2 C34.8285989,2 35.2843043,2.14749154 35.5735436,2.41231426 C35.8407559,2.64808004 36,3.00890099 36,3.45063999 C36,3.89973518 35.8696437,4.25319994 35.6240973,4.51103428 C35.2915262,4.87185523 34.7495185,5.0561277 34.1345691,5.0561277 C33.9471594,5.0561277 33.7734714,5.04840371 33.6290323,5.01162277 L33.6290323,7 L33,7 L33,2.09599823 Z" id="Fill-15" fill="#FFFFFF"></path>
                <path d="M36.6036328,4.52870676 C36.6036328,5.56322664 37.1102822,6.48973733 38,6.48973733 C38.8958806,6.48973733 39.40253,5.57758002 39.40253,4.47846993 C39.40253,3.51571695 38.9481025,2.51026267 38.0061628,2.51026267 C37.0710347,2.51026267 36.6036328,3.46548012 36.6036328,4.52870676 M40,4.44976317 C40,6.11619061 39.0843334,7 37.9675641,7 C36.8115472,7 36,6.00854026 36,4.54306014 C36,3.00581312 36.8634447,2 38.0321116,2 C39.2270516,2 40,3.01298981 40,4.44976317" id="Fill-17" fill="#FFFFFF"></path>
                <path d="M43.2468289,7 L42,2 L42.6707532,2 L43.2541118,4.52945972 C43.3997694,5.15274587 43.5312253,5.77603202 43.6186199,6.25813385 L43.6331857,6.25813385 C43.7132973,5.76120952 43.8662378,5.16756837 44.0341082,4.52204847 L44.6902956,2 L45.3534017,2 L45.9516902,4.53724153 C46.0900649,5.13051212 46.2211568,5.72415326 46.2939856,6.2507226 L46.3085513,6.2507226 C46.4105116,5.70191951 46.5488863,5.14533462 46.7021909,4.52204847 L47.3510955,2 L48,2 L46.6075135,7 L45.9440432,7 L45.3242702,4.39605721 C45.1713297,3.75794857 45.0693694,3.26843549 45.0034594,2.7640999 L44.9892578,2.7640999 C44.9018632,3.26102423 44.7922559,3.75053732 44.6101839,4.39605721 L43.9102992,7 L43.2468289,7 Z" id="Fill-19" fill="#FFFFFF"></path>
                <polygon id="Fill-21" fill="#FFFFFF" points="50.7619926 4.65582154 48.688719 4.65582154 48.688719 6.45860817 51 6.45860817 51 7 48 7 48 2 50.8809963 2 50.8809963 2.54139183 48.688719 2.54139183 48.688719 4.12184095 50.7619926 4.12184095"></polygon>
                <path d="M52.5946069,4.36371662 L53.2025259,4.36371662 C53.8380931,4.36371662 54.2412106,3.98815567 54.2412106,3.42095196 C54.2412106,2.78054881 53.8107862,2.50062532 53.1820457,2.49326859 C52.8953237,2.49326859 52.6898396,2.52269551 52.5946069,2.55212242 L52.5946069,4.36371662 Z M52,2.10299419 C52.3007168,2.03678364 52.7311412,2 53.1414268,2 C53.7766526,2 54.1865969,2.12506437 54.4736603,2.40498786 C54.7061099,2.62568969 54.8358175,2.96446701 54.8358175,3.34738468 C54.8358175,4.00286912 54.4531801,4.4372839 53.9678007,4.6142132 L53.9678007,4.63628338 C54.3231312,4.76870448 54.535442,5.12219525 54.6446695,5.63753402 C54.7945159,6.3298021 54.9040847,6.80835724 55,7 L54.3845716,7 C54.3094778,6.86022217 54.2074184,6.43279629 54.0773694,5.81446333 C53.9404938,5.12955198 53.6947321,4.87169867 53.1547389,4.84962849 L52.5946069,4.84962849 L52.5946069,7 L52,7 L52,2.10299419 Z" id="Fill-23" fill="#FFFFFF"></path>
                <polygon id="Fill-25" fill="#FFFFFF" points="58.7619926 4.65582154 56.688719 4.65582154 56.688719 6.45860817 59 6.45860817 59 7 56 7 56 2 58.8809963 2 58.8809963 2.54139183 56.688719 2.54139183 56.688719 4.12184095 58.7619926 4.12184095"></polygon>
                <path d="M60.629449,6.45270911 C60.7880759,6.48187851 61.0196929,6.48917086 61.2661247,6.48917086 C62.6110208,6.48917086 63.3420054,5.73003719 63.3420054,4.40173558 C63.3492322,3.24079341 62.698103,2.50353679 61.3669377,2.50353679 C61.0417344,2.50353679 60.795664,2.53307081 60.629449,2.56953256 L60.629449,6.45270911 Z M60,2.1020929 C60.3830172,2.0437541 60.8390244,2 61.3380307,2 C62.2424571,2 62.8863595,2.21184278 63.3130985,2.61328666 C63.7470641,3.01473055 64,3.58389849 64,4.37949391 C64,5.1827463 63.7542909,5.83942245 63.298645,6.2922774 C62.8426378,6.75206009 62.0903342,7 61.1429088,7 C60.6944896,7 60.3183379,6.97812295 60,6.9416612 L60,2.1020929 Z" id="Fill-27" fill="#FFFFFF"></path>
                <path d="M66.6138207,6.47458616 C66.7340463,6.49646321 66.9106828,6.50375556 67.1292749,6.50375556 C67.7646022,6.50375556 68.35057,6.26274338 68.35057,5.54772843 C68.35057,4.87610297 67.7928076,4.59862904 67.121871,4.59862904 L66.6138207,4.59862904 L66.6138207,6.47458616 Z M66.6138207,4.1169693 L67.171583,4.1169693 C67.821013,4.1169693 68.2021389,3.76657187 68.2021389,3.29183986 C68.2021389,2.71537957 67.7787049,2.48895209 67.1574803,2.48895209 C66.8750735,2.48895209 66.7128922,2.51082914 66.6138207,2.53270619 L66.6138207,4.1169693 Z M66,2.1020929 C66.2683041,2.0437541 66.6917382,2 67.121871,2 C67.7363968,2 68.1316253,2.10938525 68.4281349,2.35768978 C68.6749324,2.54729089 68.8233635,2.83934952 68.8233635,3.22620871 C68.8233635,3.70094071 68.5198026,4.1169693 68.0184511,4.30657041 L68.0184511,4.32115511 C68.4704431,4.43819733 69,4.82505652 69,5.55502078 C69,5.97834172 68.8374662,6.29956975 68.5973675,6.54021731 C68.2659537,6.85415299 67.7293454,7 66.9526384,7 C66.5292044,7 66.2048419,6.9708306 66,6.9416612 L66,2.1020929 Z" id="Fill-29" fill="#FFFFFF"></path>
                <path d="M71.6169083,7 L71.6169083,4.87815905 L70,2 L70.7517771,2 L71.4728462,3.37960424 C71.6699839,3.75794857 71.8216283,4.06218039 71.981234,4.41087972 L71.9963984,4.41087972 C72.1408397,4.08441414 72.3152308,3.75794857 72.5123685,3.37960424 L73.248602,2 L74,2 L72.2849019,4.8707478 L72.2849019,7 L71.6169083,7 Z" id="Fill-31" fill="#FFFFFF"></path>
            </g>
        </g>
    </g>
</svg>